%!PS-Adobe-3.0
%%Title: /home/seberik/workspace/lm-generator/thesis/figure/sigm_tanh.ps
%%Creator: matplotlib version 1.4.3, http://matplotlib.org/
%%CreationDate: Thu Jun  2 00:06:49 2016
%%Orientation: portrait
%%DocumentPaperSizes: letter
%%BoundingBox: 18 180 594 612
%%Pages: 1
%%EndComments
%%BeginProlog
/mpldict 11 dict def
mpldict begin
/m { moveto } bind def
/l { lineto } bind def
/r { rlineto } bind def
/c { curveto } bind def
/cl { closepath } bind def
/box {
m
1 index 0 r
0 exch r
neg 0 r
cl
} bind def
/clipbox {
box
clip
newpath
} bind def
%!PS-Adobe-3.0 Resource-Font
%%Title: Bitstream Vera Sans
%%Copyright: Copyright (c) 2003 by Bitstream, Inc. All Rights Reserved.
%%Creator: Converted from TrueType to type 3 by PPR
25 dict begin
/_d{bind def}bind def
/_m{moveto}_d
/_l{lineto}_d
/_cl{closepath eofill}_d
/_c{curveto}_d
/_sc{7 -1 roll{setcachedevice}{pop pop pop pop pop pop}ifelse}_d
/_e{exec}_d
/FontName /BitstreamVeraSans-Roman def
/PaintType 0 def
/FontMatrix[.001 0 0 .001 0 0]def
/FontBBox[-183 -236 1287 928]def
/FontType 3 def
/Encoding [ /period /zero /one /two /four /five /six /minus ] def
/FontInfo 10 dict dup begin
/FamilyName (Bitstream Vera Sans) def
/FullName (Bitstream Vera Sans) def
/Notice (Copyright (c) 2003 by Bitstream, Inc. All Rights Reserved. Bitstream Vera is a trademark of Bitstream, Inc.) def
/Weight (Roman) def
/Version (Release 1.10) def
/ItalicAngle 0.0 def
/isFixedPitch false def
/UnderlinePosition -213 def
/UnderlineThickness 143 def
end readonly def
/CharStrings 8 dict dup begin
/period{318 0 107 0 210 124 _sc
107 124 _m
210 124 _l
210 0 _l
107 0 _l
107 124 _l
_cl}_d
/zero{636 0 66 -13 570 742 _sc
318 664 _m
267 664 229 639 203 589 _c
177 539 165 464 165 364 _c
165 264 177 189 203 139 _c
229 89 267 64 318 64 _c
369 64 407 89 433 139 _c
458 189 471 264 471 364 _c
471 464 458 539 433 589 _c
407 639 369 664 318 664 _c
318 742 _m
399 742 461 709 505 645 _c
548 580 570 486 570 364 _c
570 241 548 147 505 83 _c
461 19 399 -13 318 -13 _c
236 -13 173 19 130 83 _c
87 147 66 241 66 364 _c
66 486 87 580 130 645 _c
173 709 236 742 318 742 _c
_cl}_d
/one{636 0 110 0 544 729 _sc
124 83 _m
285 83 _l
285 639 _l
110 604 _l
110 694 _l
284 729 _l
383 729 _l
383 83 _l
544 83 _l
544 0 _l
124 0 _l
124 83 _l
_cl}_d
/two{{636 0 73 0 536 742 _sc
192 83 _m
536 83 _l
536 0 _l
73 0 _l
73 83 _l
110 121 161 173 226 239 _c
290 304 331 346 348 365 _c
380 400 402 430 414 455 _c
426 479 433 504 433 528 _c
433 566 419 598 392 622 _c
365 646 330 659 286 659 _c
255 659 222 653 188 643 _c
154 632 117 616 78 594 _c
78 694 _l
118 710 155 722 189 730 _c
223 738 255 742 284 742 _c
}_e{359 742 419 723 464 685 _c
509 647 532 597 532 534 _c
532 504 526 475 515 449 _c
504 422 484 390 454 354 _c
446 344 420 317 376 272 _c
332 227 271 164 192 83 _c
_cl}_e}_d
/four{636 0 49 0 580 729 _sc
378 643 _m
129 254 _l
378 254 _l
378 643 _l
352 729 _m
476 729 _l
476 254 _l
580 254 _l
580 172 _l
476 172 _l
476 0 _l
378 0 _l
378 172 _l
49 172 _l
49 267 _l
352 729 _l
_cl}_d
/five{{636 0 77 -13 549 729 _sc
108 729 _m
495 729 _l
495 646 _l
198 646 _l
198 467 _l
212 472 227 476 241 478 _c
255 480 270 482 284 482 _c
365 482 429 459 477 415 _c
525 370 549 310 549 234 _c
549 155 524 94 475 51 _c
426 8 357 -13 269 -13 _c
238 -13 207 -10 175 -6 _c
143 -1 111 6 77 17 _c
77 116 _l
106 100 136 88 168 80 _c
199 72 232 69 267 69 _c
}_e{323 69 368 83 401 113 _c
433 143 450 183 450 234 _c
450 284 433 324 401 354 _c
368 384 323 399 267 399 _c
241 399 214 396 188 390 _c
162 384 135 375 108 363 _c
108 729 _l
_cl}_e}_d
/six{{636 0 70 -13 573 742 _sc
330 404 _m
286 404 251 388 225 358 _c
199 328 186 286 186 234 _c
186 181 199 139 225 109 _c
251 79 286 64 330 64 _c
374 64 409 79 435 109 _c
461 139 474 181 474 234 _c
474 286 461 328 435 358 _c
409 388 374 404 330 404 _c
526 713 _m
526 623 _l
501 635 476 644 451 650 _c
425 656 400 659 376 659 _c
310 659 260 637 226 593 _c
}_e{192 549 172 482 168 394 _c
187 422 211 444 240 459 _c
269 474 301 482 336 482 _c
409 482 467 459 509 415 _c
551 371 573 310 573 234 _c
573 159 550 99 506 54 _c
462 9 403 -13 330 -13 _c
246 -13 181 19 137 83 _c
92 147 70 241 70 364 _c
70 479 97 571 152 639 _c
206 707 280 742 372 742 _c
396 742 421 739 447 735 _c
472 730 498 723 526 713 _c
_cl}_e}_d
/minus{838 0 106 272 732 355 _sc
106 355 _m
732 355 _l
732 272 _l
106 272 _l
106 355 _l
_cl}_d
end readonly def

/BuildGlyph
 {exch begin
 CharStrings exch
 2 copy known not{pop /.notdef}if
 true 3 1 roll get exec
 end}_d

/BuildChar {
 1 index /Encoding get exch get
 1 index /BuildGlyph get exec
}_d

FontName currentdict end definefont pop
%!PS-Adobe-3.0 Resource-Font
%%Title: cmsy10
%%Copyright: Copyright (C) 1994, Basil K. Malyshev. All Rights Reserved.012BaKoMa Fonts Collection, Level-B.
%%Creator: Converted from TrueType to type 3 by PPR
25 dict begin
/_d{bind def}bind def
/_m{moveto}_d
/_l{lineto}_d
/_cl{closepath eofill}_d
/_c{curveto}_d
/_sc{7 -1 roll{setcachedevice}{pop pop pop pop pop pop}ifelse}_d
/_e{exec}_d
/FontName /Cmsy10 def
/PaintType 0 def
/FontMatrix[.001 0 0 .001 0 0]def
/FontBBox[-29 -960 1123 779]def
/FontType 3 def
/Encoding [ /minus ] def
/FontInfo 10 dict dup begin
/FamilyName (cmsy10) def
/FullName (cmsy10) def
/Notice (Copyright (C) 1994, Basil K. Malyshev. All Rights Reserved.012BaKoMa Fonts Collection, Level-B. ) def
/Weight (Regular) def
/Version (1.1/12-Nov-94) def
/ItalicAngle 0.0 def
/isFixedPitch false def
/UnderlinePosition -133 def
/UnderlineThickness 20 def
end readonly def
/CharStrings 1 dict dup begin
/minus{777 0 83 230 694 270 _sc
102 230 _m
96 230 92 232 88 236 _c
84 240 83 245 83 250 _c
83 254 84 259 88 263 _c
92 267 96 270 102 270 _c
676 270 _l
681 270 685 267 689 263 _c
692 259 694 254 694 250 _c
694 245 692 240 689 236 _c
685 232 681 230 676 230 _c
102 230 _l
_cl}_d
end readonly def

/BuildGlyph
 {exch begin
 CharStrings exch
 2 copy known not{pop /.notdef}if
 true 3 1 roll get exec
 end}_d

/BuildChar {
 1 index /Encoding get exch get
 1 index /BuildGlyph get exec
}_d

FontName currentdict end definefont pop
%!PS-Adobe-3.0 Resource-Font
%%Title: cmmi10
%%Copyright: Copyright (C) 1994, Basil K. Malyshev. All Rights Reserved.012BaKoMa Fonts Collection, Level-B.
%%Creator: Converted from TrueType to type 3 by PPR
25 dict begin
/_d{bind def}bind def
/_m{moveto}_d
/_l{lineto}_d
/_cl{closepath eofill}_d
/_c{curveto}_d
/_sc{7 -1 roll{setcachedevice}{pop pop pop pop pop pop}ifelse}_d
/_e{exec}_d
/FontName /Cmmi10 def
/PaintType 0 def
/FontMatrix[.001 0 0 .001 0 0]def
/FontBBox[-34 -250 1048 750]def
/FontType 3 def
/Encoding [ /e /g /t /i /m /o /d /s /h /a /n ] def
/FontInfo 10 dict dup begin
/FamilyName (cmmi10) def
/FullName (cmmi10) def
/Notice (Copyright (C) 1994, Basil K. Malyshev. All Rights Reserved.012BaKoMa Fonts Collection, Level-B. ) def
/Weight (Regular) def
/Version (1.1/12-Nov-94) def
/ItalicAngle 0.0 def
/isFixedPitch false def
/UnderlinePosition -133 def
/UnderlineThickness 20 def
end readonly def
/CharStrings 11 dict dup begin
/e{{465 0 44 -10 430 442 _sc
201 -10 _m
169 -10 141 -2 117 14 _c
93 30 75 53 63 81 _c
50 109 44 138 44 170 _c
44 217 56 262 80 304 _c
104 346 136 379 177 404 _c
218 429 262 442 309 442 _c
337 442 362 434 384 419 _c
405 404 416 383 416 356 _c
416 317 400 288 370 270 _c
339 251 304 239 266 235 _c
228 231 185 229 139 229 _c
136 229 _l
125 189 120 155 120 127 _c
}_e{120 97 126 71 140 49 _c
154 26 175 15 203 15 _c
243 15 281 24 318 42 _c
354 60 384 86 407 118 _c
409 120 411 121 415 121 _c
418 121 421 119 425 115 _c
428 111 430 108 430 105 _c
430 102 429 100 428 99 _c
404 65 371 38 330 19 _c
288 0 245 -10 201 -10 _c
142 255 _m
180 255 216 256 249 260 _c
282 264 312 273 339 287 _c
365 301 379 324 379 355 _c
}_e{379 367 375 378 368 387 _c
361 396 352 403 342 408 _c
331 413 320 416 308 416 _c
280 416 254 408 232 393 _c
209 377 190 357 176 333 _c
161 308 150 282 142 255 _c
_cl}_e}_d
/g{{477 0 14 -204 476 442 _sc
14 -142 _m
14 -126 19 -111 31 -99 _c
42 -87 56 -81 72 -81 _c
82 -81 91 -84 99 -91 _c
106 -97 110 -106 110 -117 _c
110 -129 106 -139 99 -149 _c
92 -159 83 -166 73 -170 _c
91 -175 119 -178 157 -178 _c
187 -178 215 -166 241 -142 _c
266 -118 283 -91 291 -61 _c
320 55 _l
284 18 246 0 207 0 _c
178 0 153 7 133 22 _c
113 36 97 56 87 80 _c
}_e{76 104 71 130 71 158 _c
71 188 77 220 89 254 _c
101 288 119 319 142 348 _c
164 376 190 399 220 416 _c
249 433 280 442 313 442 _c
332 442 349 436 365 426 _c
381 415 393 401 403 383 _c
409 409 424 422 446 422 _c
454 422 461 419 467 414 _c
473 409 476 402 476 394 _c
476 392 476 390 476 389 _c
476 388 475 387 475 386 _c
361 -67 _l
355 -87 346 -106 332 -124 _c
}_e{318 -141 301 -155 282 -167 _c
263 -179 242 -188 220 -194 _c
198 -200 176 -204 156 -204 _c
118 -204 84 -200 56 -193 _c
28 -185 14 -168 14 -142 _c
209 26 _m
251 26 293 55 335 114 _c
390 332 _l
385 355 376 375 362 391 _c
348 407 331 416 311 416 _c
289 416 268 407 248 389 _c
228 371 212 349 199 324 _c
187 300 175 265 163 220 _c
151 175 146 140 146 114 _c
146 91 151 71 161 53 _c
}_e{171 35 187 26 209 26 _c
_cl}_e}_d
/t{{361 0 22 -10 330 626 _sc
62 81 _m
62 91 63 100 65 109 _c
137 396 _l
32 396 _l
25 396 22 400 22 409 _c
24 423 29 431 35 431 _c
146 431 _l
186 594 _l
188 602 193 610 201 616 _c
209 622 218 626 228 626 _c
236 626 243 623 249 618 _c
255 613 258 606 258 598 _c
258 596 257 594 257 593 _c
257 592 257 591 257 590 _c
217 431 _l
320 431 _l
326 431 330 426 330 418 _c
}_e{330 416 329 414 328 410 _c
327 406 326 402 324 400 _c
322 397 320 396 317 396 _c
208 396 _l
136 107 _l
131 88 129 72 129 58 _c
129 29 138 15 158 15 _c
187 15 213 28 236 56 _c
258 84 276 114 288 147 _c
290 151 293 153 296 153 _c
308 153 _l
310 153 312 152 314 150 _c
316 148 317 146 317 144 _c
317 142 316 141 316 141 _c
301 101 280 65 252 35 _c
}_e{224 5 192 -10 156 -10 _c
129 -10 107 -1 89 15 _c
71 32 62 54 62 81 _c
_cl}_e}_d
/i{{344 0 27 -10 296 661 _sc
78 72 _m
78 84 80 97 86 111 _c
167 326 _l
175 350 180 370 180 386 _c
180 406 172 416 158 416 _c
132 416 110 402 93 375 _c
75 347 63 317 55 284 _c
53 280 51 278 47 278 _c
35 278 _l
29 278 27 281 27 287 _c
27 290 _l
37 330 54 365 76 396 _c
98 426 126 442 160 442 _c
184 442 204 434 220 418 _c
236 402 245 383 245 359 _c
}_e{245 346 242 333 237 320 _c
156 105 _l
146 83 142 63 142 45 _c
142 25 149 15 165 15 _c
191 15 212 29 230 57 _c
247 85 259 115 267 147 _c
268 151 271 153 275 153 _c
287 153 _l
289 153 291 152 293 150 _c
295 148 296 146 296 144 _c
296 143 295 142 295 141 _c
285 103 269 68 247 37 _c
224 5 196 -10 163 -10 _c
139 -10 119 -2 103 13 _c
86 29 78 48 78 72 _c
}_e{191 606 _m
191 620 196 632 208 644 _c
220 655 233 661 247 661 _c
258 661 267 657 275 650 _c
282 643 286 634 286 624 _c
286 609 280 596 268 585 _c
256 573 243 568 229 568 _c
218 568 209 571 202 579 _c
194 586 191 595 191 606 _c
_cl}_e}_d
/m{{878 0 27 -10 851 442 _sc
77 17 _m
77 21 77 24 78 26 _c
153 324 _l
157 342 160 359 160 373 _c
160 401 150 416 131 416 _c
110 416 94 403 84 378 _c
74 353 64 322 55 284 _c
55 282 54 280 52 279 _c
50 278 48 278 47 278 _c
35 278 _l
33 278 31 279 29 281 _c
27 283 27 286 27 288 _c
34 317 41 342 48 362 _c
54 382 65 400 79 417 _c
}_e{93 433 110 442 132 442 _c
156 442 178 434 198 418 _c
217 402 227 382 227 358 _c
247 384 270 404 297 419 _c
323 434 352 442 382 442 _c
413 442 440 434 463 418 _c
486 402 498 379 498 349 _c
518 378 542 401 570 417 _c
597 433 627 442 660 442 _c
694 442 722 432 743 414 _c
764 395 775 368 775 334 _c
775 306 768 273 756 235 _c
744 196 729 153 711 105 _c
}_e{701 81 697 61 697 45 _c
697 25 704 15 720 15 _c
746 15 767 29 785 57 _c
802 85 814 115 822 147 _c
824 151 826 153 830 153 _c
842 153 _l
844 153 846 152 848 150 _c
850 148 851 146 851 144 _c
851 143 850 142 850 141 _c
840 103 824 68 802 37 _c
780 5 752 -10 718 -10 _c
694 -10 674 -2 658 13 _c
641 29 633 48 633 72 _c
633 83 635 96 641 111 _c
}_e{659 161 675 205 688 245 _c
700 284 707 319 707 349 _c
707 367 703 383 696 396 _c
688 409 676 416 658 416 _c
622 416 590 404 563 382 _c
536 360 513 330 494 294 _c
492 287 491 282 491 279 _c
427 22 _l
424 12 419 5 411 -1 _c
403 -7 394 -10 385 -10 _c
377 -10 370 -7 364 -3 _c
358 1 355 8 355 17 _c
355 21 355 24 356 26 _c
420 281 _l
426 308 430 331 430 349 _c
}_e{430 367 426 383 418 396 _c
410 409 398 416 380 416 _c
355 416 332 410 312 400 _c
292 389 274 375 259 357 _c
243 339 229 318 217 294 _c
149 22 _l
147 12 142 5 134 -1 _c
126 -7 117 -10 107 -10 _c
99 -10 92 -7 86 -3 _c
80 1 77 8 77 17 _c
_cl}_e}_d
/o{{484 0 40 -10 471 442 _sc
201 -10 _m
169 -10 141 -2 117 12 _c
92 26 73 46 60 72 _c
46 97 40 126 40 158 _c
40 203 52 248 78 292 _c
103 336 136 372 178 400 _c
220 428 264 442 310 442 _c
334 442 356 437 376 429 _c
395 421 412 409 426 394 _c
440 378 451 360 459 340 _c
467 319 471 297 471 273 _c
471 238 463 204 449 170 _c
434 136 414 106 389 78 _c
}_e{363 50 334 29 301 13 _c
268 -2 235 -10 201 -10 _c
203 15 _m
233 15 260 25 284 45 _c
308 65 329 91 345 122 _c
361 152 373 185 381 219 _c
389 253 394 284 394 312 _c
394 340 386 365 372 385 _c
358 405 336 416 308 416 _c
269 416 235 399 206 366 _c
176 332 154 292 139 246 _c
124 200 117 157 117 119 _c
117 90 124 65 139 45 _c
154 25 175 15 203 15 _c
_cl}_e}_d
/d{{520 0 38 -10 519 694 _sc
174 -10 _m
132 -10 98 5 74 37 _c
50 68 38 105 38 149 _c
38 191 49 236 71 282 _c
93 328 122 366 160 396 _c
198 426 238 442 282 442 _c
302 442 319 436 335 425 _c
351 414 363 400 372 382 _c
428 605 _l
430 616 432 625 433 632 _c
433 642 411 648 368 648 _c
361 648 358 652 358 661 _c
358 663 358 666 360 670 _c
361 674 362 677 364 679 _c
}_e{366 681 368 683 372 683 _c
507 694 _l
515 694 519 689 519 681 _c
375 106 _l
370 94 368 78 368 58 _c
368 29 377 15 397 15 _c
417 15 433 28 444 55 _c
455 81 464 112 472 147 _c
473 151 476 153 480 153 _c
492 153 _l
494 153 496 151 498 149 _c
500 147 501 145 501 143 _c
489 96 476 59 462 31 _c
448 3 426 -10 395 -10 _c
372 -10 352 -3 335 9 _c
}_e{318 21 307 39 303 61 _c
260 13 217 -10 174 -10 _c
175 15 _m
199 15 222 24 245 42 _c
267 60 287 81 303 106 _c
303 106 304 108 304 110 _c
359 330 _l
355 353 346 373 333 390 _c
319 407 302 416 280 416 _c
257 416 236 406 217 388 _c
197 370 181 348 168 323 _c
154 296 142 259 130 213 _c
118 167 113 131 113 105 _c
113 81 118 60 128 42 _c
138 24 153 15 175 15 _c
}_e{_cl}_e}_d
/s{{468 0 52 -10 419 442 _sc
87 61 _m
105 30 141 15 195 15 _c
218 15 240 19 261 27 _c
282 35 300 47 314 63 _c
328 79 335 98 335 121 _c
335 138 328 152 316 163 _c
304 174 289 182 271 186 _c
217 197 _l
192 203 172 214 156 231 _c
140 248 132 269 132 293 _c
132 322 140 348 156 371 _c
172 394 193 412 219 424 _c
245 436 273 442 302 442 _c
332 442 359 434 383 420 _c
}_e{407 405 419 384 419 356 _c
419 340 414 327 406 315 _c
397 303 385 298 370 298 _c
361 298 353 300 347 306 _c
341 312 338 319 338 328 _c
338 336 340 343 344 351 _c
348 358 354 364 362 368 _c
369 372 377 375 385 375 _c
379 389 368 399 352 406 _c
336 412 318 416 300 416 _c
282 416 265 412 249 406 _c
232 399 218 389 208 376 _c
198 362 193 347 193 329 _c
}_e{193 317 197 306 205 297 _c
213 288 224 282 237 278 _c
295 266 _l
313 262 330 255 346 245 _c
361 235 373 222 382 207 _c
391 192 396 175 396 156 _c
396 131 389 106 375 82 _c
361 58 344 39 324 25 _c
288 1 245 -10 194 -10 _c
158 -10 126 -2 96 14 _c
66 30 52 54 52 86 _c
52 104 57 119 67 133 _c
77 147 92 154 111 154 _c
121 154 130 150 138 144 _c
}_e{145 137 149 128 149 118 _c
149 102 143 89 132 78 _c
120 66 107 61 92 61 _c
87 61 _l
_cl}_e}_d
/h{{576 0 53 -10 549 694 _sc
53 18 _m
53 22 53 25 54 27 _c
199 605 _l
201 616 203 625 204 632 _c
204 642 182 648 139 648 _c
132 648 129 652 129 661 _c
129 663 129 666 131 670 _c
132 674 133 677 135 679 _c
137 681 139 683 143 683 _c
278 694 _l
281 694 _l
281 693 282 692 284 691 _c
286 689 288 689 288 689 _c
289 685 290 683 290 681 _c
212 369 _l
252 417 301 442 358 442 _c
}_e{381 442 401 437 418 429 _c
435 421 448 408 458 392 _c
468 376 473 356 473 334 _c
473 306 467 273 455 235 _c
443 196 427 153 409 105 _c
399 83 395 63 395 45 _c
395 25 402 15 418 15 _c
444 15 465 29 483 57 _c
500 85 512 115 520 147 _c
521 151 524 153 528 153 _c
540 153 _l
542 153 544 152 546 150 _c
548 148 549 146 549 144 _c
549 143 548 142 548 141 _c
}_e{542 117 533 93 521 70 _c
509 46 495 27 478 12 _c
460 -2 440 -10 416 -10 _c
392 -10 372 -2 356 13 _c
339 29 331 48 331 72 _c
331 84 333 97 339 111 _c
357 161 373 205 386 245 _c
398 284 405 319 405 349 _c
405 368 401 384 393 397 _c
385 409 373 416 356 416 _c
320 416 288 405 262 383 _c
235 361 212 332 193 296 _c
125 23 _l
122 13 117 5 110 -1 _c
}_e{102 -7 94 -10 84 -10 _c
75 -10 68 -7 62 -2 _c
56 3 53 10 53 18 _c
_cl}_e}_d
/a{{528 0 38 -10 501 442 _sc
174 -10 _m
132 -10 98 5 74 37 _c
50 68 38 105 38 149 _c
38 191 49 236 71 282 _c
93 328 122 366 160 396 _c
198 426 238 442 282 442 _c
302 442 319 436 335 426 _c
351 415 363 400 372 382 _c
379 408 394 422 416 422 _c
424 422 431 419 437 414 _c
443 409 446 402 446 394 _c
446 392 445 390 445 389 _c
445 388 445 387 445 386 _c
375 107 _l
}_e{370 87 368 70 368 58 _c
368 29 377 15 397 15 _c
417 15 433 28 444 55 _c
455 81 464 112 472 147 _c
473 151 476 153 480 153 _c
492 153 _l
494 153 496 151 498 149 _c
500 147 501 145 501 143 _c
489 96 476 59 462 31 _c
448 3 426 -10 395 -10 _c
372 -10 352 -3 335 9 _c
318 21 307 39 303 61 _c
260 13 217 -10 174 -10 _c
175 15 _m
199 15 222 24 245 42 _c
}_e{267 60 287 81 303 106 _c
303 106 304 107 304 109 _c
358 326 _l
359 329 _l
355 353 346 373 333 390 _c
319 407 302 416 280 416 _c
257 416 236 406 217 388 _c
197 370 181 348 168 323 _c
154 296 142 259 130 213 _c
118 167 113 131 113 105 _c
113 81 118 60 128 42 _c
138 24 153 15 175 15 _c
_cl}_e}_d
/n{{600 0 27 -10 574 442 _sc
77 17 _m
77 21 77 24 78 26 _c
153 324 _l
157 342 160 359 160 373 _c
160 401 150 416 131 416 _c
110 416 94 403 84 378 _c
74 353 64 322 55 284 _c
55 282 54 280 52 279 _c
50 278 48 278 47 278 _c
35 278 _l
33 278 31 279 29 281 _c
27 283 27 286 27 288 _c
34 317 41 342 48 362 _c
54 382 65 400 79 417 _c
}_e{93 433 110 442 132 442 _c
156 442 178 434 198 418 _c
217 402 227 382 227 358 _c
247 384 270 404 297 419 _c
323 434 352 442 382 442 _c
405 442 425 437 443 429 _c
460 421 473 408 483 392 _c
493 376 498 356 498 334 _c
498 306 491 273 479 235 _c
467 196 452 153 434 105 _c
424 83 420 63 420 45 _c
420 25 427 15 443 15 _c
469 15 490 29 508 57 _c
}_e{525 85 537 115 545 147 _c
546 151 549 153 553 153 _c
565 153 _l
567 153 569 152 571 150 _c
573 148 574 146 574 144 _c
574 143 573 142 573 141 _c
564 103 548 68 526 37 _c
503 5 475 -10 441 -10 _c
417 -10 397 -2 381 13 _c
364 29 356 48 356 72 _c
356 84 358 97 364 111 _c
372 133 381 159 392 189 _c
403 219 412 247 419 275 _c
426 303 430 327 430 349 _c
}_e{430 367 426 383 418 396 _c
410 409 398 416 380 416 _c
355 416 332 410 312 400 _c
292 389 274 375 259 357 _c
243 339 229 318 217 294 _c
149 22 _l
147 12 142 5 134 -1 _c
126 -7 117 -10 107 -10 _c
99 -10 92 -7 86 -3 _c
80 1 77 8 77 17 _c
_cl}_e}_d
end readonly def

/BuildGlyph
 {exch begin
 CharStrings exch
 2 copy known not{pop /.notdef}if
 true 3 1 roll get exec
 end}_d

/BuildChar {
 1 index /Encoding get exch get
 1 index /BuildGlyph get exec
}_d

FontName currentdict end definefont pop
%!PS-Adobe-3.0 Resource-Font
%%Title: cmr10
%%Copyright: Copyright (C) 1994, Basil K. Malyshev. All Rights Reserved.012BaKoMa Fonts Collection, Level-B.
%%Creator: Converted from TrueType to type 3 by PPR
25 dict begin
/_d{bind def}bind def
/_m{moveto}_d
/_l{lineto}_d
/_cl{closepath eofill}_d
/_c{curveto}_d
/_sc{7 -1 roll{setcachedevice}{pop pop pop pop pop pop}ifelse}_d
/_e{exec}_d
/FontName /Cmr10 def
/PaintType 0 def
/FontMatrix[.001 0 0 .001 0 0]def
/FontBBox[-44 -250 1009 750]def
/FontType 3 def
/Encoding [ /equal /two /parenright /plus /one /parenleft ] def
/FontInfo 10 dict dup begin
/FamilyName (cmr10) def
/FullName (cmr10) def
/Notice (Copyright (C) 1994, Basil K. Malyshev. All Rights Reserved.012BaKoMa Fonts Collection, Level-B. ) def
/Weight (Regular) def
/Version (1.1/12-Nov-94) def
/ItalicAngle 0.0 def
/isFixedPitch false def
/UnderlinePosition -133 def
/UnderlineThickness 20 def
end readonly def
/CharStrings 6 dict dup begin
/equal{{777 0 56 133 721 367 _sc
75 133 _m
69 133 65 135 61 139 _c
57 143 56 148 56 153 _c
56 158 57 163 61 167 _c
65 171 69 173 75 173 _c
703 173 _l
707 173 711 171 715 167 _c
719 163 721 158 721 153 _c
721 148 719 143 715 139 _c
711 135 707 133 703 133 _c
75 133 _l
75 327 _m
69 327 65 329 61 333 _c
57 337 56 341 56 347 _c
56 351 57 356 61 360 _c
}_e{65 364 69 367 75 367 _c
703 367 _l
707 367 711 364 715 360 _c
719 356 721 351 721 347 _c
721 341 719 337 715 333 _c
711 329 707 327 703 327 _c
75 327 _l
_cl}_e}_d
/two{{500 0 50 0 449 666 _sc
50 0 _m
50 27 _l
50 28 50 30 52 32 _c
207 204 _l
230 229 249 250 264 268 _c
278 285 293 305 307 327 _c
321 349 333 372 341 396 _c
349 419 354 444 354 470 _c
354 497 349 523 339 548 _c
329 573 314 593 294 608 _c
274 623 249 631 221 631 _c
192 631 166 622 143 605 _c
119 587 103 565 94 537 _c
96 537 100 538 105 538 _c
}_e{119 538 132 533 143 523 _c
153 513 159 500 159 484 _c
159 468 153 455 143 445 _c
132 434 119 429 105 429 _c
89 429 76 434 66 445 _c
55 456 50 469 50 484 _c
50 508 54 532 64 554 _c
73 576 86 595 104 613 _c
122 630 142 643 164 652 _c
186 661 210 666 236 666 _c
274 666 309 658 342 642 _c
375 626 401 603 420 573 _c
439 543 449 509 449 470 _c
}_e{449 441 442 414 430 388 _c
417 362 401 338 381 317 _c
361 295 336 271 305 244 _c
274 217 254 199 244 190 _c
131 81 _l
227 81 _l
274 81 313 81 345 82 _c
377 82 394 84 396 86 _c
404 94 412 125 420 178 _c
449 178 _l
421 0 _l
50 0 _l
_cl}_e}_d
/parenright{{388 0 56 -249 291 750 _sc
65 -249 _m
59 -249 56 -246 56 -240 _c
56 -237 56 -235 58 -234 _c
172 -122 229 38 229 250 _c
229 462 172 623 60 733 _c
57 734 56 737 56 741 _c
56 743 57 745 59 747 _c
61 749 63 750 65 750 _c
74 750 _l
76 750 77 749 79 748 _c
127 710 167 664 199 610 _c
231 556 254 498 269 437 _c
283 376 291 314 291 250 _c
291 202 287 156 279 110 _c
}_e{271 64 258 20 241 -24 _c
223 -68 201 -108 175 -146 _c
148 -184 116 -217 79 -247 _c
77 -248 76 -249 74 -249 _c
65 -249 _l
_cl}_e}_d
/plus{{777 0 56 -82 721 583 _sc
75 230 _m
69 230 65 232 61 236 _c
57 240 56 245 56 250 _c
56 254 57 259 61 263 _c
65 267 69 270 75 270 _c
369 270 _l
369 565 _l
369 570 371 574 375 578 _c
379 581 383 583 389 583 _c
393 583 398 581 402 578 _c
406 574 409 570 409 565 _c
409 270 _l
703 270 _l
707 270 711 267 715 263 _c
719 259 721 254 721 250 _c
721 245 719 240 715 236 _c
}_e{711 232 707 230 703 230 _c
409 230 _l
409 -64 _l
409 -69 406 -73 402 -77 _c
398 -80 393 -82 389 -82 _c
383 -82 379 -80 375 -77 _c
371 -73 369 -69 369 -64 _c
369 230 _l
75 230 _l
_cl}_e}_d
/one{500 0 87 0 421 666 _sc
93 0 _m
93 35 _l
176 35 218 45 218 67 _c
218 592 _l
183 575 139 567 87 567 _c
87 602 _l
168 602 230 623 272 666 _c
286 666 _l
288 666 291 665 293 663 _c
295 661 296 659 296 657 _c
296 67 _l
296 45 337 35 421 35 _c
421 0 _l
93 0 _l
_cl}_d
/parenleft{{388 0 97 -249 332 750 _sc
310 -247 _m
272 -217 240 -184 214 -146 _c
187 -108 165 -67 148 -25 _c
131 17 118 62 110 109 _c
101 155 97 202 97 250 _c
97 298 101 345 110 392 _c
118 438 131 483 149 527 _c
166 570 188 611 215 649 _c
242 687 274 720 310 748 _c
310 749 311 750 315 750 _c
324 750 _l
326 750 327 749 329 747 _c
331 745 332 743 332 741 _c
332 738 331 736 330 735 _c
}_e{297 703 270 668 248 632 _c
226 596 209 557 196 516 _c
183 474 174 432 168 388 _c
162 344 159 298 159 250 _c
159 38 215 -122 329 -232 _c
331 -234 332 -236 332 -240 _c
332 -242 331 -244 329 -246 _c
327 -248 326 -249 324 -249 _c
315 -249 _l
311 -249 310 -248 310 -247 _c
_cl}_e}_d
end readonly def

/BuildGlyph
 {exch begin
 CharStrings exch
 2 copy known not{pop /.notdef}if
 true 3 1 roll get exec
 end}_d

/BuildChar {
 1 index /Encoding get exch get
 1 index /BuildGlyph get exec
}_d

FontName currentdict end definefont pop
end
%%EndProlog
%%Page: 1 1
mpldict begin
18 180 translate
576 432 0 0 clipbox
gsave
0 0 m
576 0 l
576 432 l
0 432 l
cl
1.000 setgray
fill
grestore
gsave
72 43.2 m
518.4 43.2 l
518.4 388.8 l
72 388.8 l
cl
1.000 setgray
fill
grestore
1.000 setlinewidth
1 setlinejoin
2 setlinecap
[] 0 setdash
0.000 0.000 1.000 setrgbcolor
gsave
446.4 345.6 72 43.2 clipbox
109.2 43.2157 m
152.438 43.3603 l
170.33 43.6192 l
182.258 43.9952 l
191.204 44.4845 l
198.659 45.1143 l
204.623 45.8324 l
209.841 46.6764 l
214.314 47.6094 l
218.787 48.7888 l
222.515 50.0045 l
226.242 51.4782 l
229.224 52.8773 l
232.206 54.5051 l
235.188 56.3958 l
238.17 58.5882 l
241.152 61.1252 l
243.388 63.2824 l
245.625 65.6814 l
247.861 68.3448 l
250.098 71.2963 l
252.334 74.5604 l
254.571 78.1619 l
256.807 82.1258 l
259.044 86.4765 l
261.28 91.2373 l
263.517 96.4296 l
265.753 102.072 l
268.735 110.321 l
271.717 119.418 l
274.699 129.367 l
277.681 140.148 l
280.663 151.713 l
284.39 167.155 l
288.863 186.847 l
295.573 217.731 l
303.028 251.833 l
307.501 271.143 l
311.228 286.164 l
314.21 297.344 l
317.192 307.713 l
320.174 317.237 l
323.156 325.909 l
326.138 333.74 l
328.374 339.081 l
330.611 343.983 l
332.847 348.468 l
335.084 352.558 l
337.32 356.278 l
339.557 359.652 l
341.793 362.705 l
344.03 365.461 l
346.266 367.946 l
349.248 370.875 l
352.23 373.412 l
355.212 375.604 l
358.194 377.495 l
361.176 379.123 l
364.158 380.522 l
367.885 381.996 l
371.613 383.211 l
375.34 384.213 l
379.813 385.183 l
385.032 386.061 l
390.996 386.808 l
397.705 387.409 l
405.905 387.903 l
416.342 388.288 l
430.507 388.561 l
452.126 388.725 l
481.2 388.784 l
481.2 388.784 l
stroke
grestore
0.000 0.500 0.000 setrgbcolor
gsave
446.4 345.6 72 43.2 clipbox
109.2 217.157 m
124.855 217.756 l
137.529 218.458 l
148.711 219.303 l
158.402 220.262 l
166.603 221.281 l
174.058 222.41 l
181.513 223.768 l
188.222 225.222 l
194.186 226.726 l
200.15 228.456 l
206.114 230.441 l
211.332 232.409 l
216.551 234.614 l
221.769 237.076 l
226.988 239.812 l
231.461 242.39 l
235.933 245.192 l
240.406 248.226 l
244.879 251.498 l
249.352 255.01 l
254.571 259.409 l
259.789 264.125 l
265.008 269.144 l
270.972 275.218 l
276.935 281.606 l
284.39 289.934 l
295.573 302.833 l
308.246 317.397 l
315.701 325.623 l
321.665 331.9 l
327.629 337.843 l
332.847 342.734 l
338.066 347.316 l
343.284 351.576 l
348.503 355.51 l
352.976 358.623 l
357.448 361.501 l
361.921 364.153 l
367.14 366.971 l
372.358 369.509 l
377.577 371.786 l
382.795 373.82 l
388.014 375.631 l
393.978 377.454 l
399.941 379.039 l
406.651 380.573 l
413.36 381.877 l
420.815 383.092 l
429.016 384.191 l
437.962 385.156 l
447.653 385.978 l
458.835 386.702 l
472.254 387.332 l
481.2 387.643 l
481.2 387.643 l
stroke
grestore
gsave
72 388.8 m
518.4 388.8 l
grestore
gsave
518.4 43.2 m
518.4 388.8 l
grestore
0 setlinejoin
0.000 setgray
gsave
72 216 m
518.4 216 l
stroke
grestore
gsave
295.2 43.2 m
295.2 388.8 l
stroke
grestore
0.500 setlinewidth
1 setlinejoin
0 setlinecap
[1 3] 0 setdash
gsave
72 43.2 m
72 388.8 l
stroke
grestore
[] 0 setdash
gsave
/o {
gsave
newpath
translate
0.5 setlinewidth
1 setlinejoin
0 setlinecap
0 0 m
0 4 l
gsave
0.000 setgray
fill
grestore
stroke
grestore
} bind def
72 216 o
grestore
gsave
/o {
gsave
newpath
translate
0.5 setlinewidth
1 setlinejoin
0 setlinecap
0 0 m
0 -4 l
gsave
0.000 setgray
fill
grestore
stroke
grestore
} bind def
72 388.8 o
grestore
/BitstreamVeraSans-Roman findfont
12.000 scalefont
setfont
gsave
64.164062 202.875000 translate
0.000000 rotate
0.000000 0.000000 m /minus glyphshow
10.054688 0.000000 m /six glyphshow
grestore
[1 3] 0 setdash
gsave
146.4 43.2 m
146.4 388.8 l
stroke
grestore
[] 0 setdash
gsave
/o {
gsave
newpath
translate
0.5 setlinewidth
1 setlinejoin
0 setlinecap
0 0 m
0 4 l
gsave
0.000 setgray
fill
grestore
stroke
grestore
} bind def
146.4 216 o
grestore
gsave
/o {
gsave
newpath
translate
0.5 setlinewidth
1 setlinejoin
0 setlinecap
0 0 m
0 -4 l
gsave
0.000 setgray
fill
grestore
stroke
grestore
} bind def
146.4 388.8 o
grestore
gsave
138.517188 202.875000 translate
0.000000 rotate
0.000000 0.000000 m /minus glyphshow
10.054688 0.000000 m /four glyphshow
grestore
[1 3] 0 setdash
gsave
220.8 43.2 m
220.8 388.8 l
stroke
grestore
[] 0 setdash
gsave
/o {
gsave
newpath
translate
0.5 setlinewidth
1 setlinejoin
0 setlinecap
0 0 m
0 4 l
gsave
0.000 setgray
fill
grestore
stroke
grestore
} bind def
220.8 216 o
grestore
gsave
/o {
gsave
newpath
translate
0.5 setlinewidth
1 setlinejoin
0 setlinecap
0 0 m
0 -4 l
gsave
0.000 setgray
fill
grestore
stroke
grestore
} bind def
220.8 388.8 o
grestore
gsave
213.182813 202.875000 translate
0.000000 rotate
0.000000 0.000000 m /minus glyphshow
10.054688 0.000000 m /two glyphshow
grestore
[1 3] 0 setdash
gsave
295.2 43.2 m
295.2 388.8 l
stroke
grestore
[] 0 setdash
gsave
/o {
gsave
newpath
translate
0.5 setlinewidth
1 setlinejoin
0 setlinecap
0 0 m
0 4 l
gsave
0.000 setgray
fill
grestore
stroke
grestore
} bind def
295.2 216 o
grestore
gsave
/o {
gsave
newpath
translate
0.5 setlinewidth
1 setlinejoin
0 setlinecap
0 0 m
0 -4 l
gsave
0.000 setgray
fill
grestore
stroke
grestore
} bind def
295.2 388.8 o
grestore
gsave
292.176562 202.875000 translate
0.000000 rotate
0.000000 0.000000 m /zero glyphshow
grestore
[1 3] 0 setdash
gsave
369.6 43.2 m
369.6 388.8 l
stroke
grestore
[] 0 setdash
gsave
/o {
gsave
newpath
translate
0.5 setlinewidth
1 setlinejoin
0 setlinecap
0 0 m
0 4 l
gsave
0.000 setgray
fill
grestore
stroke
grestore
} bind def
369.6 216 o
grestore
gsave
/o {
gsave
newpath
translate
0.5 setlinewidth
1 setlinejoin
0 setlinecap
0 0 m
0 -4 l
gsave
0.000 setgray
fill
grestore
stroke
grestore
} bind def
369.6 388.8 o
grestore
gsave
366.818750 202.875000 translate
0.000000 rotate
0.000000 0.000000 m /two glyphshow
grestore
[1 3] 0 setdash
gsave
444 43.2 m
444 388.8 l
stroke
grestore
[] 0 setdash
gsave
/o {
gsave
newpath
translate
0.5 setlinewidth
1 setlinejoin
0 setlinecap
0 0 m
0 4 l
gsave
0.000 setgray
fill
grestore
stroke
grestore
} bind def
444 216 o
grestore
gsave
/o {
gsave
newpath
translate
0.5 setlinewidth
1 setlinejoin
0 setlinecap
0 0 m
0 -4 l
gsave
0.000 setgray
fill
grestore
stroke
grestore
} bind def
444 388.8 o
grestore
gsave
440.812500 202.875000 translate
0.000000 rotate
0.000000 0.000000 m /four glyphshow
grestore
[1 3] 0 setdash
gsave
518.4 43.2 m
518.4 388.8 l
stroke
grestore
[] 0 setdash
gsave
/o {
gsave
newpath
translate
0.5 setlinewidth
1 setlinejoin
0 setlinecap
0 0 m
0 4 l
gsave
0.000 setgray
fill
grestore
stroke
grestore
} bind def
518.4 216 o
grestore
gsave
/o {
gsave
newpath
translate
0.5 setlinewidth
1 setlinejoin
0 setlinecap
0 0 m
0 -4 l
gsave
0.000 setgray
fill
grestore
stroke
grestore
} bind def
518.4 388.8 o
grestore
gsave
515.384375 202.875000 translate
0.000000 rotate
0.000000 0.000000 m /six glyphshow
grestore
[1 3] 0 setdash
gsave
72 43.2 m
518.4 43.2 l
stroke
grestore
[] 0 setdash
gsave
/o {
gsave
newpath
translate
0.5 setlinewidth
1 setlinejoin
0 setlinecap
0 0 m
4 0 l
gsave
0.000 setgray
fill
grestore
stroke
grestore
} bind def
295.2 43.2 o
grestore
gsave
/o {
gsave
newpath
translate
0.5 setlinewidth
1 setlinejoin
0 setlinecap
0 0 m
-4 0 l
gsave
0.000 setgray
fill
grestore
stroke
grestore
} bind def
518.4 43.2 o
grestore
gsave
264.106250 39.887500 translate
0.000000 rotate
0.000000 0.000000 m /minus glyphshow
10.054688 0.000000 m /one glyphshow
17.689453 0.000000 m /period glyphshow
21.503906 0.000000 m /zero glyphshow
grestore
[1 3] 0 setdash
gsave
72 129.6 m
518.4 129.6 l
stroke
grestore
[] 0 setdash
gsave
/o {
gsave
newpath
translate
0.5 setlinewidth
1 setlinejoin
0 setlinecap
0 0 m
4 0 l
gsave
0.000 setgray
fill
grestore
stroke
grestore
} bind def
295.2 129.6 o
grestore
gsave
/o {
gsave
newpath
translate
0.5 setlinewidth
1 setlinejoin
0 setlinecap
0 0 m
-4 0 l
gsave
0.000 setgray
fill
grestore
stroke
grestore
} bind def
518.4 129.6 o
grestore
gsave
264.356250 126.287500 translate
0.000000 rotate
0.000000 0.000000 m /minus glyphshow
10.054688 0.000000 m /zero glyphshow
17.689453 0.000000 m /period glyphshow
21.503906 0.000000 m /five glyphshow
grestore
[1 3] 0 setdash
gsave
72 216 m
518.4 216 l
stroke
grestore
[] 0 setdash
gsave
/o {
gsave
newpath
translate
0.5 setlinewidth
1 setlinejoin
0 setlinecap
0 0 m
4 0 l
gsave
0.000 setgray
fill
grestore
stroke
grestore
} bind def
295.2 216 o
grestore
gsave
/o {
gsave
newpath
translate
0.5 setlinewidth
1 setlinejoin
0 setlinecap
0 0 m
-4 0 l
gsave
0.000 setgray
fill
grestore
stroke
grestore
} bind def
518.4 216 o
grestore
gsave
273.700000 212.687500 translate
0.000000 rotate
0.000000 0.000000 m /zero glyphshow
7.634766 0.000000 m /period glyphshow
11.449219 0.000000 m /zero glyphshow
grestore
[1 3] 0 setdash
gsave
72 302.4 m
518.4 302.4 l
stroke
grestore
[] 0 setdash
gsave
/o {
gsave
newpath
translate
0.5 setlinewidth
1 setlinejoin
0 setlinecap
0 0 m
4 0 l
gsave
0.000 setgray
fill
grestore
stroke
grestore
} bind def
295.2 302.4 o
grestore
gsave
/o {
gsave
newpath
translate
0.5 setlinewidth
1 setlinejoin
0 setlinecap
0 0 m
-4 0 l
gsave
0.000 setgray
fill
grestore
stroke
grestore
} bind def
518.4 302.4 o
grestore
gsave
273.950000 299.087500 translate
0.000000 rotate
0.000000 0.000000 m /zero glyphshow
7.634766 0.000000 m /period glyphshow
11.449219 0.000000 m /five glyphshow
grestore
[1 3] 0 setdash
gsave
72 388.8 m
518.4 388.8 l
stroke
grestore
[] 0 setdash
gsave
/o {
gsave
newpath
translate
0.5 setlinewidth
1 setlinejoin
0 setlinecap
0 0 m
4 0 l
gsave
0.000 setgray
fill
grestore
stroke
grestore
} bind def
295.2 388.8 o
grestore
gsave
/o {
gsave
newpath
translate
0.5 setlinewidth
1 setlinejoin
0 setlinecap
0 0 m
-4 0 l
gsave
0.000 setgray
fill
grestore
stroke
grestore
} bind def
518.4 388.8 o
grestore
gsave
274.215625 385.487500 translate
0.000000 rotate
0.000000 0.000000 m /one glyphshow
7.634766 0.000000 m /period glyphshow
11.449219 0.000000 m /zero glyphshow
grestore
1.000 setlinewidth
0 setlinejoin
gsave
326.8 51.2 m
510.4 51.2 l
510.4 123 l
326.8 123 l
cl
gsave
1.000 setgray
fill
grestore
stroke
grestore
1 setlinejoin
2 setlinecap
0.000 0.000 1.000 setrgbcolor
gsave
338 105.2 m
360.4 105.2 l
stroke
grestore
0.000 setgray
gsave
378.000000 99.600000 translate
0.000000 rotate
/Cmmi10 findfont
16.0 scalefont
setfont
0.000000 0.885438 moveto
/t glyphshow

5.773438 0.885438 moveto
/a glyphshow

14.218750 0.885438 moveto
/n glyphshow

23.820312 0.885438 moveto
/h glyphshow

/Cmr10 findfont
16.0 scalefont
setfont
33.039062 0.885438 moveto
/parenleft glyphshow

/Cmmi10 findfont
16.0 scalefont
setfont
39.250000 0.885438 moveto
/t glyphshow

/Cmr10 findfont
16.0 scalefont
setfont
45.023438 0.885438 moveto
/parenright glyphshow

54.043750 0.885438 moveto
/equal glyphshow

/Cmr10 findfont
11.2 scalefont
setfont
68.493750 7.016688 moveto
/one glyphshow

/Cmsy10 findfont
11.2 scalefont
setfont
74.093750 7.016688 moveto
/minus glyphshow

/Cmmi10 findfont
11.2 scalefont
setfont
82.794531 7.016688 moveto
/e glyphshow

/Cmsy10 findfont
7.84 scalefont
setfont
88.000781 11.778438 moveto
/minus glyphshow

/Cmr10 findfont
7.84 scalefont
setfont
94.091328 11.778438 moveto
/two glyphshow

/Cmmi10 findfont
7.84 scalefont
setfont
98.011328 11.778438 moveto
/t glyphshow

67.493750 2.885438 36.932044 1.000000 rectfill
/Cmr10 findfont
11.2 scalefont
setfont
67.493750 -8.097875 moveto
/one glyphshow

75.060312 -8.097875 moveto
/plus glyphshow

/Cmmi10 findfont
11.2 scalefont
setfont
84.475313 -8.097875 moveto
/e glyphshow

/Cmsy10 findfont
7.84 scalefont
setfont
89.681562 -3.336125 moveto
/minus glyphshow

/Cmr10 findfont
7.84 scalefont
setfont
95.772109 -3.336125 moveto
/two glyphshow

/Cmmi10 findfont
7.84 scalefont
setfont
99.692109 -3.336125 moveto
/t glyphshow


grestore
0.000 0.500 0.000 setrgbcolor
gsave
338 73.2 m
360.4 73.2 l
stroke
grestore
0.000 setgray
gsave
378.000000 67.600000 translate
0.000000 rotate
/Cmmi10 findfont
16.0 scalefont
setfont
0.000000 0.540625 moveto
/s glyphshow

7.484375 0.540625 moveto
/i glyphshow

12.992188 0.540625 moveto
/g glyphshow

20.625000 0.540625 moveto
/m glyphshow

34.671875 0.540625 moveto
/o glyphshow

42.414062 0.540625 moveto
/i glyphshow

47.921875 0.540625 moveto
/d glyphshow

/Cmr10 findfont
16.0 scalefont
setfont
56.242188 0.540625 moveto
/parenleft glyphshow

/Cmmi10 findfont
16.0 scalefont
setfont
62.453125 0.540625 moveto
/t glyphshow

/Cmr10 findfont
16.0 scalefont
setfont
68.226562 0.540625 moveto
/parenright glyphshow

77.246875 0.540625 moveto
/equal glyphshow

/Cmr10 findfont
11.2 scalefont
setfont
104.696875 6.540625 moveto
/one glyphshow

90.696875 2.540625 33.012044 1.000000 rectfill
90.696875 -8.128781 moveto
/one glyphshow

98.263437 -8.128781 moveto
/plus glyphshow

/Cmmi10 findfont
11.2 scalefont
setfont
107.678438 -8.128781 moveto
/e glyphshow

/Cmsy10 findfont
7.84 scalefont
setfont
112.884687 -3.367031 moveto
/minus glyphshow

/Cmmi10 findfont
7.84 scalefont
setfont
118.975234 -3.367031 moveto
/t glyphshow


grestore

end
showpage
%%EOF
